20 Automatically Generating Stage Descriptions | Visualising WRC Rally Stages With rayshader and R
…
Having identified straights, we realise that what we are actually interested in are long straights. The length of each straight can be found by grouping segments by straight number and summing the distances of segments within each group:

straight_lengths = trj %>% 
                        # We only want straightish segments...
                        dplyr::filter(strcount>=0) %>%
                        # Group by straight number
                        group_by(strcount)  %>%
                        # Find the length of each straight
                        summarize(strdistance = sum(distance))

straight_lengths

## # A tibble: 77 x 2
##    strcount strdistance
##  *    <dbl>       <dbl>
##  1        1         0  
##  2        2        21.8
##  3        3       205. 
##  4        4        33.0
##  5        5       307. 
##  6        6       170. 
##  7        7        30.8
##  8        8       116. 
##  9        9        65.3
## 10       10       192. 
## # … with 67 more rows
…
