17 Stage Route Analysis | Visualising WRC Rally Stages With rayshader and R
…
An additional burst column, burst_, provides us with a potential grouping parameter that lets us perform analyses on sections of the track. This could be used to identify segments of the route between split points, for example, if we can apply appropriate burst labels to each part of the track.

For our purposes here, it is clear to see how we might imagine a mapping the X and Y co-ordinates from a route linestring in a UTM/meters based projection directly into a a track tibble. The amt::make_track() function provides a straightforward way of doing this:

library(amt)

amt_track = make_track(st_coordinates(utm_routes[1,]), X, Y)

## .t missing, creating `track_xy`.

amt_track

## # A tibble: 419 x 2
##         x_       y_
##  *   <dbl>    <dbl>
##  1 729177. 4957658.
##  2 729187. 4957678.
##  3 729199. 4957703.
##  4 729200. 4957724.
##  5 729189. 4957741.
##  6 729168. 4957746.
##  7 729129. 4957744.
##  8 729102. 4957753.
##  9 728952. 4957845.
## 10 728928. 4957870.
## # … with 409 more rows
…
